…
gwynnda_df=gwynnda_df |>
  janitor::clean_names()|>
  drop_na(dumpster)

dplyr:::left_join.data.frame(trashwheel_df, proftrashwheel_df, gwynnda_df, by = "volume_cubic_yards")
```

    ## Warning in dplyr:::left_join.data.frame(trashwheel_df, proftrashwheel_df, : Detected an unexpected many-to-many relationship between `x` and `y`.
    ## ℹ Row 3 of `x` matches multiple rows in `y`.
    ## ℹ Row 1 of `y` matches multiple rows in `x`.
    ## ℹ If a many-to-many relationship is expected, set `relationship =
    ##   "many-to-many"` to silence this warning.

    ## # A tibble: 56,965 × 26
    ##    dumpster.x month.x year.x date.x              weight_tons.x
    ##         <dbl> <chr>   <chr>  <dttm>                      <dbl>
    ##  1          1 May     2014   2014-05-16 00:00:00          4.31
    ##  2          2 May     2014   2014-05-16 00:00:00          2.74
    ##  3          3 May     2014   2014-05-16 00:00:00          3.45
    ##  4          3 May     2014   2014-05-16 00:00:00          3.45
    ##  5          3 May     2014   2014-05-16 00:00:00          3.45
    ##  6          3 May     2014   2014-05-16 00:00:00          3.45
    ##  7          3 May     2014   2014-05-16 00:00:00          3.45
    ##  8          3 May     2014   2014-05-16 00:00:00          3.45
    ##  9          3 May     2014   2014-05-16 00:00:00          3.45
    ## 10          3 May     2014   2014-05-16 00:00:00          3.45
    ## # ℹ 56,955 more rows
    ## # ℹ 21 more variables: volume_cubic_yards <dbl>, plastic_bottles.x <dbl>,
    ## #   polystyrene.x <dbl>, cigarette_butts.x <dbl>, glass_bottles.x <dbl>,
    ## #   plastic_bags.x <dbl>, wrappers.x <dbl>, sports_balls <int>,
    ## #   homes_powered.x <dbl>, dumpster.y <dbl>, month.y <chr>, year.y <dbl>,
    ## #   date.y <dttm>, weight_tons.y <dbl>, plastic_bottles.y <dbl>,
    ## #   polystyrene.y <dbl>, cigarette_butts.y <dbl>, glass_bottles.y <dbl>, …
…
``` r
bakers=
  bakers |> rename(baker = baker_name)
bakes = 
  bakes |> rename(baker = baker)

# checking for discrepancies between datasets
anti_join(bakers, bakes, by = c("series", "baker"))
```

    ## # A tibble: 120 × 5
    ##    baker            series baker_age baker_occupation             hometown      
    ##    <chr>             <dbl>     <dbl> <chr>                        <chr>         
    ##  1 Ali Imdad             4        25 Charity worker               Saltley, Birm…
    ##  2 Alice Fevronia       10        28 Geography teacher            Essex         
    ##  3 Alvin Magallanes      6        37 Nurse                        Bracknell, Be…
    ##  4 Amelia LeBruin       10        24 Fashion designer             Halifax       
    ##  5 Andrew Smyth          7        25 Aerospace engineer           Derby / Holyw…
    ##  6 Annetha Mills         1        30 Midwife                      Essex         
    ##  7 Antony Amourdoux      9        30 Banker                       London        
    ##  8 Beca Lyne-Pirkis      4        31 Military Wives' Choir Singer Aldershot, Ha…
    ##  9 Ben Frazer            2        31 Graphic Designer             Northampton   
    ## 10 Benjamina Ebuehi      7        23 Teaching assistant           South London  
    ## # ℹ 110 more rows
